<svg width="68" height="56" viewBox="0 0 68 56" fill="none" xmlns="http://www.w3.org/2000/svg">
<path d="M20.1442 39.7085C16.8364 39.7085 14.1537 43.2824 14.1537 47.6758C14.1537 52.0822 16.8364 55.6561 20.1442 55.6561C23.4423 55.6561 26.125 52.082 26.125 47.6758C26.125 43.2824 23.4423 39.7085 20.1442 39.7085ZM20.1442 51.6723C18.4903 51.6723 17.1442 49.8791 17.1442 47.6758C17.1442 45.4855 18.4903 43.6921 20.1442 43.6921C21.7883 43.6921 23.1346 45.4853 23.1346 47.6758C23.1346 49.8791 21.7884 51.6723 20.1442 51.6723ZM14.9876 39.7119H1.58089C1.04989 39.7119 0.619444 40.2853 0.619444 40.9927V44.8791C0.619444 45.5864 1.04989 46.1599 1.58089 46.1599H12.3269C12.6076 43.5955 13.5791 41.33 14.9876 39.7119ZM51.4423 39.7085C48.1441 39.7085 45.4616 43.2824 45.4616 47.6758C45.4616 52.0822 48.1442 55.6561 51.4423 55.6561C54.75 55.6561 57.423 52.082 57.423 47.6758C57.4231 43.2824 54.75 39.7085 51.4423 39.7085ZM51.4423 51.6723C49.7884 51.6723 48.4519 49.8791 48.4519 47.6758C48.4519 45.4855 49.7884 43.6921 51.4423 43.6921C53.0961 43.6921 54.4327 45.4853 54.4327 47.6758C54.4328 49.8791 53.0961 51.6723 51.4423 51.6723ZM67.0386 39.7085H64.702V22.3008C64.702 20.2642 64.2404 18.266 63.3847 16.575L57.529 5.0212C56.1058 2.20309 53.7117 0.512288 51.154 0.512288H42.0771C41.0193 0.512288 40.154 1.65232 40.154 3.07418V39.7085H25.2981C26.702 41.3352 27.6731 43.5898 27.952 46.1643H43.6347C44.1828 41.0792 47.4712 37.1466 51.4424 37.1466C55.4134 37.1466 58.702 41.079 59.2597 46.1643H67.0386C67.5771 46.1643 68 45.5878 68 44.8834V40.9895C68 40.2849 67.5769 39.7085 67.0386 39.7085ZM57.4614 18.8807H45.4808C44.9519 18.8807 44.5192 18.317 44.5192 17.5997V8.74872C44.5192 8.04416 44.9521 7.46778 45.4808 7.46778H52.7789C53.0961 7.46778 53.3943 7.67263 53.5674 8.00567L58.2502 16.8696C58.7019 17.715 58.2403 18.8807 57.4614 18.8807ZM35.5769 37.1466H1.923C0.861 37.1466 0 35.9998 0 34.5849V23.0565C0 21.6416 0.861 20.4947 1.923 20.4947H35.5769C36.639 20.4947 37.5 21.6416 37.5 23.0565V34.5849C37.5 35.9998 36.639 37.1466 35.5769 37.1466ZM15.3847 16.652H1.923C0.861 16.652 0 15.5048 0 14.0901V2.56189C0 1.14699 0.861 0 1.923 0H15.3846C16.4467 0 17.3077 1.14699 17.3077 2.56189V14.0901C17.3078 15.5048 16.4468 16.652 15.3847 16.652ZM35.5769 16.652H22.1154C21.0533 16.652 20.1923 15.505 20.1923 14.0902V2.56189C20.1923 1.14699 21.0533 0.000147936 22.1154 0.000147936H35.577C36.6391 0.000147936 37.5001 1.14713 37.5001 2.56189V14.0902C37.5 15.5048 36.639 16.652 35.5769 16.652Z" fill="#2E75FF"/>
</svg>
